Relations taille - poids — taille_poids • aspe
…
    Usage

data(taille_poids)

    Format

    An object of class grouped_df (inherits from tbl_df, tbl, data.frame) with 208 rows and 7 columns.

    Examples

# \donttest{
data(taille_poids)
taille_poids# }
#> # A tibble: 208 × 7
#> # Groups:   esp_nom_latin [86]
#>    esp_code_alternatif esp_nom_latin   tlo_libelle       a     b source n_etudes
#>    <chr>               <chr>           <chr>         <dbl> <dbl> <chr>     <dbl>
#>  1 ABH                 Leucaspius del… Totale      0.0069   3.10 Fishb…        1
#>  2 ABL                 Alburnus albur… Totale      0.00711  3.14 Fishb…       19
#>  3 ABL                 Alburnus albur… Totale      0.0292   2.46 ASPE          1
#>  4 ALA                 Alosa alosa     Totale      0.00764  3.06 Fishb…        8
#>  5 ALF                 Alosa fallax    Totale      0.00514  3.09 Fishb…       13
#>  6 ANG                 Anguilla angui… Totale      0.00109  3.14 Fishb…       53
#>  7 APP                 Austropotamobi… Totale      0.0373   2.96 ASPE          1
#>  8 APR                 Zingel asper    Totale      0.0196   2.69 ASPE          1
#>  9 ASP                 Leuciscus aspi… Totale      0.0139   3    Fishb…        1
#> 10 ASP                 Leuciscus aspi… Totale      0.0246   2.58 ASPE          1
#> # ℹ 198 more rows
…
